{
    "handleId": {
      "presence": {
        "allowEmpty": false
      },
      "type": "string"
    },
    "price": {
        "presence": {
          "allowEmpty": false
        },
        "type": "number"
    },
    "duration": {
      "presence": {
        "allowEmpty": false
      },
      "type": "string"
    },
    "type": {
      "presence": {
        "allowEmpty": false
      },
      "type": "string"
    }

}